<?xml version="1.0" encoding="utf-8"?>
<!-- Generator: Adobe Illustrator 19.2.0, SVG Export Plug-In . SVG Version: 6.00 Build 0)  -->
<!DOCTYPE svg PUBLIC "-//W3C//DTD SVG 1.0//EN" "http://www.w3.org/TR/2001/REC-SVG-20010904/DTD/svg10.dtd">
<svg version="1.0" id="Calque_1" xmlns="http://www.w3.org/2000/svg" xmlns:xlink="http://www.w3.org/1999/xlink" x="0px" y="0px"
	 viewBox="953.4 323.1 943.2 511.3" enable-background="new 953.4 323.1 943.2 511.3" xml:space="preserve">
<path fill="#839097" d="M953.4,834.5h86.8V323.1h-86.8V834.5z M1187,834.5h86.8V323.1H1187V834.5z M1809.9,323.1v511.3h86.7V323.1
	H1809.9z M1308.2,834.5h86.8V323.1h-86.8V834.5z M1074.6,834.5h43.4V323.1h-43.4V834.5z M1429.5,834.5h43.4V323.1h-43.4V834.5z
	 M1507.3,834.5h43.3V323.1h-43.3V834.5z M1619.7,834.5h43.3V323.1h-43.3V834.5z M1697.5,834.5h43.4V323.1h-43.4V834.5z"/>
</svg>
