<?xml version="1.0" encoding="utf-8"?>
<!-- Generator: Adobe Illustrator 19.2.0, SVG Export Plug-In . SVG Version: 6.00 Build 0)  -->
<!DOCTYPE svg PUBLIC "-//W3C//DTD SVG 1.0//EN" "http://www.w3.org/TR/2001/REC-SVG-20010904/DTD/svg10.dtd">
<svg version="1.0" id="Calque_1" xmlns="http://www.w3.org/2000/svg" xmlns:xlink="http://www.w3.org/1999/xlink" x="0px" y="0px"
	 viewBox="0 0 44 44" enable-background="new 0 0 44 44" xml:space="preserve">
<g id="BG">
</g>
<g id="Titles_1_">
	<g id="General_2_">
	</g>
	<g id="Electronics_2_">
	</g>
	<g id="E-Commerce_2_">
	</g>
	<g id="Web_2_">
	</g>
	<g id="Location_2_">
	</g>
	<g id="Arrows_2_">
	</g>
	<g id="Weather_2_">
	</g>
	<g id="Miscellaneous_2_">
	</g>
</g>
<g id="General_1_">
</g>
<g id="Electronics_1_">
</g>
<g id="E-Commerce_1_">
	<g>
		<g id="Magnify_Glass_x40_2x.png_2_">
			<g>
				<path fill="#DD5533" d="M43.7,42.3L33.1,31.7c3-3.4,4.9-7.8,4.9-12.7C38,8.5,29.5,0,19,0S0,8.5,0,19s8.5,19,19,19
					c4.9,0,9.3-1.9,12.7-4.9l10.6,10.6c0.2,0.2,0.4,0.3,0.7,0.3c0.6,0,1-0.4,1-1C44,42.7,43.9,42.5,43.7,42.3z M19,36
					C9.6,36,2,28.4,2,19S9.6,2,19,2s17,7.6,17,17S28.4,36,19,36z"/>
			</g>
		</g>
		<g id="Dollar_Coin_1_">
			<g>
				<path fill="#DD5533" d="M24.3,20.3c-0.3-0.6-0.7-1-1.2-1.4s-1-0.7-1.7-0.9c-0.6-0.2-1.1-0.5-1.7-0.6v-4.8c0.8,0,1.2,0.2,1.5,0.6
					c0.4,0.4,0.6,1,0.6,1.8h2.5c0-0.7-0.1-1.4-0.4-1.9c-0.3-0.6-0.6-1-1-1.4s-0.9-0.6-1.5-0.8s-1-0.3-1.7-0.3V9h-1.3v1.5
					c-0.7,0-1.1,0.1-1.7,0.3s-1.1,0.5-1.6,0.8S14.3,12.5,14,13c-0.3,0.6-0.4,1.2-0.4,1.9c0,0.8,0.1,1.5,0.4,2.1s0.7,1,1.2,1.4
					s1,0.7,1.6,0.9c0.6,0.2,1,0.4,1.6,0.6v5.5c-1,0-1.6-0.3-2-0.9s-0.7-1.4-0.6-2.4h-2.5c0,0.8,0.1,1.6,0.4,2.2
					c0.3,0.6,0.6,1.2,1.1,1.6s1,0.8,1.7,1s1.2,0.4,2,0.4V29h1.3v-1.5c0.7,0,1.2-0.2,1.9-0.4c0.6-0.2,1.2-0.5,1.6-1
					c0.5-0.4,0.8-0.9,1.1-1.6c0.3-0.6,0.4-1.4,0.4-2.2C24.7,21.5,24.6,20.8,24.3,20.3z M18.4,17.1c-0.3-0.1-0.4-0.2-0.7-0.3
					c-0.3-0.1-0.6-0.3-0.8-0.4c-0.2-0.2-0.4-0.4-0.6-0.7c-0.1-0.3-0.2-0.6-0.2-0.9c0-0.8,0.2-1.4,0.6-1.7s0.9-0.5,1.6-0.5v4.5H18.4z
					 M21.5,24.7c-0.5,0.4-1,0.7-1.8,0.7v-5.3c0.3,0.1,0.5,0.2,0.8,0.3c0.3,0.1,0.6,0.3,0.9,0.5s0.5,0.4,0.6,0.7
					c0.2,0.3,0.2,0.6,0.2,1.1C22.2,23.6,22,24.3,21.5,24.7z"/>
			</g>
		</g>
	</g>
</g>
<g id="Web_1_">
</g>
<g id="Location_1_">
</g>
<g id="Arrows_1_">
</g>
<g id="Weather_1_">
</g>
<g id="Miscellaneous_1_">
</g>
</svg>
